{
    "modules":
    {
        "client":
        [
            {"id":"satutils", "url":"/lib/satutils.js"},
            {"id":"utils", "url":"/lib/utils.js"},
            {"id":"three-bas", "url":"/lib/three-bas/bas.js"},
            {"id":"gsap", "url":"/lib/gsap/TweenMax.min.js"},
            {"id":"tweakpane", "url":"/lib/tweakpane-3.0.6.min.js"},
            {"id":"generic-template", "url":"/lib/templating.js"},
            {"id":"event", "url":"/lib/es6-event-emitter/es6-event-emitter.js"},
            {"id":"PopUpText", "url":"/hubs-components/uiComponents/popUpText.js"},
            {"id":"boundingBox", "url":"/hubs-components/zoneBased/BoundingBoxElement.js"},
            {"id":"zone-popup-text", "url":"/hubs-components/zoneBased/PopUpTextZone.js"},
            {"id":"portal", "url":"/hubs-components/zoneBased/Portal.js"},
            {"id":"cssConfig", "url":"/rooms/9Jog9bG/roomCustomization.js"},
            {"id":"generic-css", "url":"/lib/roomCustomizer.js"},
            {"id":"MediaVideoControls", "url":"/lib/video/MediaVideoControls.js"},
            {"id":"FaustOrganJS", "url":"/rooms/9Jog9bG/faust/wasm/organ.js"},
            {"id":"organsetup", "url":"/rooms/9Jog9bG/faust/js/organ.js"},
            {"id":"modlabarJS", "url":"/rooms/9Jog9bG/faust/wasm/modalbar.js"},
            {"id":"modalbarsetup", "url":"/rooms/9Jog9bG/faust/js/modalbar.js"},
            {"id":"FeedbackJS", "url":"/rooms/9Jog9bG/faust/wasm/saxophony.js"},
            {"id":"feedbacksetup", "url":"/rooms/9Jog9bG/faust/js/saxophony.js"},
            {"id":"drwhoscJS", "url":"/rooms/9Jog9bG/faust/wasm/drwhosc.js"},
            {"id":"drwhoscsetup", "url":"/rooms/9Jog9bG/faust/js/drwhosc.js"},
            {"id":"wavesinJS", "url":"/rooms/9Jog9bG/faust/wasm/wavesin.js"},
            {"id":"wavesinsetup", "url":"/rooms/9Jog9bG/faust/js/wavesin.js"},
            {"id":"particles", "url":"/hubs-components/particles/BASParticles.js"},
            {"id":"entry", "url":"/rooms/9Jog9bG/entry.js"},
            {"id":"roomConfig", "url":"/rooms/9Jog9bG/components-configs.js"},
            {"id":"particlesInit", "url":"/lib/BasParticlesInit.js"},
            {"id":"accountList", "url":"/lib/AccountList.js"}
        ],
        "server":
        [

        ]
    },
    "roomSpecificAvatarOnEntrance":true,
    "useCustomEntry":false,
    "useDynamicCustomEntry":true,
    "themeColors":{

    }
}
